Diet Interventions as Ecological Shifts • mbtransfer
…
sim_ts <- counterfactual_ts(ts, ws[[1]], ws[[10]], start_ix = 4) |>
  map(~ predict(fits[["in-sample"]], .))

The sim_ts object includes simulated series for every
subject. We can understand the marginal effects by summarizing across
subjects. The ribbon_data function computes the first and
third quartiles of the difference between each subject’s hypothetical
series. Before the intervention, the two series are expected to be
equal, but if there is a strong intervention effect, we would expect the
series to diverge after the intervention appears.

focus_taxa <- c("Otu000080", "Otu000118", "Otu000060", "Otu000012", "Otu000432", "Otu000115", "Otu000018", "Otu000098", "Otu000006", "Otu000088", "Otu000065")
rdata <- ribbon_data(sim_ts[[2]], sim_ts[[1]], focus_taxa)
rdata
#> # A tibble: 165 × 5
#> # Groups:   taxon [11]
#>    taxon      time q_lower median q_upper
#>    <chr>     <dbl>   <dbl>  <dbl>   <dbl>
#>  1 Otu000006    -5  0      0       0     
#>  2 Otu000006    -4  0      0       0     
#>  3 Otu000006    -3  0      0       0     
#>  4 Otu000006    -2  0      0       0     
#>  5 Otu000006    -1  0      0       0     
#>  6 Otu000006     0  0.0642 0.0642  0.0642
#>  7 Otu000006     1  0.116  0.134   0.145 
#>  8 Otu000006     2  0.275  0.301   0.335 
#>  9 Otu000006     3  0.361  0.403   0.446 
#> 10 Otu000006     4  0.245  0.277   0.309 
#> # ℹ 155 more rows
…
