Significant Taxa using Mirror Statistics — select_taxa • mbtransfer
…
#> $taxa$`27`
#> character(0)
#> 
#> $taxa$`28`
#> character(0)
#> 
#> $taxa$`29`
#> character(0)
#> 
#> $taxa$`30`
#> character(0)
#> 
#> 
#> $ms
#> # A tibble: 1,500 × 4
#>        m   lag multisplit taxon
#>    <dbl> <int>      <int> <int>
#>  1     0     1          1     1
#>  2     0     1          1     2
#>  3     0     1          1     3
#>  4     0     1          1     4
#>  5     0     1          1     5
#>  6     0     1          1     6
#>  7     0     1          1     7
#>  8     0     1          1     8
#>  9     0     1          1     9
#> 10     0     1          1    10
#> # ℹ 1,490 more rows
…
